import java.util.ArrayList;
import java.util.Arrays;

public class tak{

    public static ArrayList<Integer> merge(ArrayList<Integer> a, ArrayList<Integer> b) {

        ArrayList<Integer> c = new ArrayList<>(Arrays.asList());

        int i = 0;
        int sizea = a.size();
        int sizeb = b.size();
        if (sizea < sizeb) {
            for (i = 0; i < sizea; i++) {
                c.add(a.get(i));
                c.add(b.get(i));
            }
            for (i = sizea; i < sizeb; i++) {
                c.add(b.get(i));
            }
        }

        if (sizea > sizeb) {
            for (i = 0; i < sizeb; i++) {
                c.add(a.get(i));
                c.add(b.get(i));
            }
            for (i = sizeb; i < sizea; i++) {
                c.add(a.get(i));

            }
        }

        if (sizea == sizeb){
            for (i = 0; i < sizeb; i++) {
                c.add(a.get(i));
                c.add(b.get(i));
            }
        }
        return c;
    }

    public static void main(String[] args){
        ArrayList<Integer> a = new ArrayList<>(Arrays.asList(1,3,3,8,5,9,11));
        ArrayList<Integer> b = new ArrayList<>(Arrays.asList(6,9,8,7));
        System.out.print(merge(a,b));

    }
}