import java.util.ArrayList;
import java.util.Arrays;

public class tak{

    public static ArrayList<Integer> reversed(ArrayList<Integer> a){

        ArrayList<Integer> c = new ArrayList<>(Arrays.asList());
        for(int i = a.size() - 1; i >= 0; i--){
            c.add(a.get(i));
        }
        return c;
    }
    public static void main(String[] args){
        ArrayList<Integer> a = new ArrayList<>(Arrays.asList(3,8,5,7,1));
        System.out.print(reversed(a));

    }
}